﻿[
    {
        "Application": "Communication-Invoice Clarification",
        "URL": "https://sap-mobility.e.corpintra.net/sap/opu/odata/DCFC/FIO_COMM_APP_SRV;mo/WorkItemIdsSet/$count"
    },
    {
        "Application": "FI Invoice Approval",
        "URL": "https://sap-mobility.e.corpintra.net/sap/opu/odata/DCFC/FIO_FI_INV_APP_SRV;mo/WorkItemIdsSet/$count"
    },
    {
        "Application": "MM Invoice Approval",
        "URL": "https://sap-mobility.e.corpintra.net/sap/opu/odata/DCFC/FIO_MMINV_APP_SRV;mo/WorkflowItems/$count"
    },
    {
        "Application": "Purchase Order Approval",
        "URL": "https://sap-mobility.e.corpintra.net/sap/opu/odata/sap/gbapp_poapproval;mo/WorkflowTaskCollection/$count"
    },
    {
        "Application": "Purchase Requisition Approval",
        "URL": "https://sap-mobility.e.corpintra.net/sap/opu/odata/sap/gbapp_prapproval;mo/WorkflowTaskCollection/$count"
    },
    {
        "Application": "Service Entry Sheet Approval",
        "URL": "https://sap-mobility.e.corpintra.net/sap/opu/odata/dcfc/FIO_SES_APP_SRV;mo/Workitems/$count"
    },
    {
        "Application": "Sales Order Approval",
        "URL": "https://sap-mobility.e.corpintra.net/sap/opu/odata/DCFC/FIO_SO_APPROVAL_SRV;mo/SoWorkitemSet/$count"
    },
    {
        "Application": "User Settings:",
        "URL": "https://sap-mobility.e.corpintra.net/sap/opu/odata/DCFC/FIO_USER_SETTING_SRV;mo/SUBSTITUTESet/$count"
    },
    {
        "Application": "AOL – Payment Request:",
        "URL": "https://sap-mobility.e.corpintra.net/sap/opu/odata/DCFC/FIO_PRF_APP_SRV;mo/WorkItemIdSet/$count"
    }
]